<?xml version="1.0" encoding="utf-8"?>
<svg xmlns="http://www.w3.org/2000/svg" xmlns:xlink="http://www.w3.org/1999/xlink" width="600" height="400" viewBox="0 0 2400 1600">
<defs>
  <clipPath id="clip300">
    <rect x="0" y="0" width="2400" height="1600"/>
  </clipPath>
</defs>
<path clip-path="url(#clip300)" d="
M0 1600 L2400 1600 L2400 0 L0 0  Z
  " fill="#ffffff" fill-rule="evenodd" fill-opacity="1"/>
<defs>
  <clipPath id="clip301">
    <rect x="480" y="0" width="1681" height="1600"/>
  </clipPath>
</defs>
<path clip-path="url(#clip300)" d="
M251.88 1423.18 L2352.76 1423.18 L2352.76 47.2441 L251.88 47.2441  Z
  " fill="#ffffff" fill-rule="evenodd" fill-opacity="1"/>
<defs>
  <clipPath id="clip302">
    <rect x="251" y="47" width="2102" height="1377"/>
  </clipPath>
</defs>
<polyline clip-path="url(#clip302)" style="stroke:#000000; stroke-width:2; stroke-opacity:0.1; fill:none" points="
  330.77,1423.18 330.77,47.2441 
  "/>
<polyline clip-path="url(#clip302)" style="stroke:#000000; stroke-width:2; stroke-opacity:0.1; fill:none" points="
  789.047,1423.18 789.047,47.2441 
  "/>
<polyline clip-path="url(#clip302)" style="stroke:#000000; stroke-width:2; stroke-opacity:0.1; fill:none" points="
  1247.32,1423.18 1247.32,47.2441 
  "/>
<polyline clip-path="url(#clip302)" style="stroke:#000000; stroke-width:2; stroke-opacity:0.1; fill:none" points="
  1705.6,1423.18 1705.6,47.2441 
  "/>
<polyline clip-path="url(#clip302)" style="stroke:#000000; stroke-width:2; stroke-opacity:0.1; fill:none" points="
  2163.88,1423.18 2163.88,47.2441 
  "/>
<polyline clip-path="url(#clip300)" style="stroke:#000000; stroke-width:4; stroke-opacity:1; fill:none" points="
  251.88,1423.18 2352.76,1423.18 
  "/>
<polyline clip-path="url(#clip300)" style="stroke:#000000; stroke-width:4; stroke-opacity:1; fill:none" points="
  330.77,1423.18 330.77,1406.67 
  "/>
<polyline clip-path="url(#clip300)" style="stroke:#000000; stroke-width:4; stroke-opacity:1; fill:none" points="
  789.047,1423.18 789.047,1406.67 
  "/>
<polyline clip-path="url(#clip300)" style="stroke:#000000; stroke-width:4; stroke-opacity:1; fill:none" points="
  1247.32,1423.18 1247.32,1406.67 
  "/>
<polyline clip-path="url(#clip300)" style="stroke:#000000; stroke-width:4; stroke-opacity:1; fill:none" points="
  1705.6,1423.18 1705.6,1406.67 
  "/>
<polyline clip-path="url(#clip300)" style="stroke:#000000; stroke-width:4; stroke-opacity:1; fill:none" points="
  2163.88,1423.18 2163.88,1406.67 
  "/>
<path clip-path="url(#clip300)" d="M 0 0 M298.779 1452.37 Q295.168 1452.37 293.339 1455.94 Q291.534 1459.48 291.534 1466.61 Q291.534 1473.71 293.339 1477.28 Q295.168 1480.82 298.779 1480.82 Q302.413 1480.82 304.219 1477.28 Q306.048 1473.71 306.048 1466.61 Q306.048 1459.48 304.219 1455.94 Q302.413 1452.37 298.779 1452.37 M298.779 1448.67 Q304.589 1448.67 307.645 1453.27 Q310.724 1457.86 310.724 1466.61 Q310.724 1475.33 307.645 1479.94 Q304.589 1484.52 298.779 1484.52 Q292.969 1484.52 289.89 1479.94 Q286.835 1475.33 286.835 1466.61 Q286.835 1457.86 289.89 1453.27 Q292.969 1448.67 298.779 1448.67 Z" fill="#000000" fill-rule="evenodd" fill-opacity="1" /><path clip-path="url(#clip300)" d="M 0 0 M315.793 1477.97 L320.677 1477.97 L320.677 1483.85 L315.793 1483.85 L315.793 1477.97 Z" fill="#000000" fill-rule="evenodd" fill-opacity="1" /><path clip-path="url(#clip300)" d="M 0 0 M335.747 1452.37 Q332.135 1452.37 330.307 1455.94 Q328.501 1459.48 328.501 1466.61 Q328.501 1473.71 330.307 1477.28 Q332.135 1480.82 335.747 1480.82 Q339.381 1480.82 341.186 1477.28 Q343.015 1473.71 343.015 1466.61 Q343.015 1459.48 341.186 1455.94 Q339.381 1452.37 335.747 1452.37 M335.747 1448.67 Q341.557 1448.67 344.612 1453.27 Q347.691 1457.86 347.691 1466.61 Q347.691 1475.33 344.612 1479.94 Q341.557 1484.52 335.747 1484.52 Q329.936 1484.52 326.858 1479.94 Q323.802 1475.33 323.802 1466.61 Q323.802 1457.86 326.858 1453.27 Q329.936 1448.67 335.747 1448.67 Z" fill="#000000" fill-rule="evenodd" fill-opacity="1" /><path clip-path="url(#clip300)" d="M 0 0 M362.76 1452.37 Q359.149 1452.37 357.32 1455.94 Q355.515 1459.48 355.515 1466.61 Q355.515 1473.71 357.32 1477.28 Q359.149 1480.82 362.76 1480.82 Q366.395 1480.82 368.2 1477.28 Q370.029 1473.71 370.029 1466.61 Q370.029 1459.48 368.2 1455.94 Q366.395 1452.37 362.76 1452.37 M362.76 1448.67 Q368.57 1448.67 371.626 1453.27 Q374.705 1457.86 374.705 1466.61 Q374.705 1475.33 371.626 1479.94 Q368.57 1484.52 362.76 1484.52 Q356.95 1484.52 353.871 1479.94 Q350.816 1475.33 350.816 1466.61 Q350.816 1457.86 353.871 1453.27 Q356.95 1448.67 362.76 1448.67 Z" fill="#000000" fill-rule="evenodd" fill-opacity="1" /><path clip-path="url(#clip300)" d="M 0 0 M758.353 1452.37 Q754.742 1452.37 752.913 1455.94 Q751.108 1459.48 751.108 1466.61 Q751.108 1473.71 752.913 1477.28 Q754.742 1480.82 758.353 1480.82 Q761.987 1480.82 763.793 1477.28 Q765.621 1473.71 765.621 1466.61 Q765.621 1459.48 763.793 1455.94 Q761.987 1452.37 758.353 1452.37 M758.353 1448.67 Q764.163 1448.67 767.219 1453.27 Q770.297 1457.86 770.297 1466.61 Q770.297 1475.33 767.219 1479.94 Q764.163 1484.52 758.353 1484.52 Q752.543 1484.52 749.464 1479.94 Q746.409 1475.33 746.409 1466.61 Q746.409 1457.86 749.464 1453.27 Q752.543 1448.67 758.353 1448.67 Z" fill="#000000" fill-rule="evenodd" fill-opacity="1" /><path clip-path="url(#clip300)" d="M 0 0 M775.367 1477.97 L780.251 1477.97 L780.251 1483.85 L775.367 1483.85 L775.367 1477.97 Z" fill="#000000" fill-rule="evenodd" fill-opacity="1" /><path clip-path="url(#clip300)" d="M 0 0 M789.348 1479.92 L805.667 1479.92 L805.667 1483.85 L783.723 1483.85 L783.723 1479.92 Q786.385 1477.16 790.968 1472.53 Q795.575 1467.88 796.755 1466.54 Q799.001 1464.01 799.88 1462.28 Q800.783 1460.52 800.783 1458.83 Q800.783 1456.07 798.839 1454.34 Q796.918 1452.6 793.816 1452.6 Q791.617 1452.6 789.163 1453.37 Q786.732 1454.13 783.955 1455.68 L783.955 1450.96 Q786.779 1449.82 789.232 1449.25 Q791.686 1448.67 793.723 1448.67 Q799.093 1448.67 802.288 1451.35 Q805.482 1454.04 805.482 1458.53 Q805.482 1460.66 804.672 1462.58 Q803.885 1464.48 801.779 1467.07 Q801.2 1467.74 798.098 1470.96 Q794.996 1474.15 789.348 1479.92 Z" fill="#000000" fill-rule="evenodd" fill-opacity="1" /><path clip-path="url(#clip300)" d="M 0 0 M810.783 1449.29 L829.14 1449.29 L829.14 1453.23 L815.066 1453.23 L815.066 1461.7 Q816.084 1461.35 817.103 1461.19 Q818.121 1461 819.14 1461 Q824.927 1461 828.306 1464.18 Q831.686 1467.35 831.686 1472.76 Q831.686 1478.34 828.214 1481.44 Q824.741 1484.52 818.422 1484.52 Q816.246 1484.52 813.978 1484.15 Q811.732 1483.78 809.325 1483.04 L809.325 1478.34 Q811.408 1479.48 813.63 1480.03 Q815.853 1480.59 818.329 1480.59 Q822.334 1480.59 824.672 1478.48 Q827.01 1476.38 827.01 1472.76 Q827.01 1469.15 824.672 1467.05 Q822.334 1464.94 818.329 1464.94 Q816.454 1464.94 814.579 1465.36 Q812.728 1465.77 810.783 1466.65 L810.783 1449.29 Z" fill="#000000" fill-rule="evenodd" fill-opacity="1" /><path clip-path="url(#clip300)" d="M 0 0 M1215.83 1452.37 Q1212.22 1452.37 1210.39 1455.94 Q1208.59 1459.48 1208.59 1466.61 Q1208.59 1473.71 1210.39 1477.28 Q1212.22 1480.82 1215.83 1480.82 Q1219.47 1480.82 1221.27 1477.28 Q1223.1 1473.71 1223.1 1466.61 Q1223.1 1459.48 1221.27 1455.94 Q1219.47 1452.37 1215.83 1452.37 M1215.83 1448.67 Q1221.64 1448.67 1224.7 1453.27 Q1227.78 1457.86 1227.78 1466.61 Q1227.78 1475.33 1224.7 1479.94 Q1221.64 1484.52 1215.83 1484.52 Q1210.02 1484.52 1206.94 1479.94 Q1203.89 1475.33 1203.89 1466.61 Q1203.89 1457.86 1206.94 1453.27 Q1210.02 1448.67 1215.83 1448.67 Z" fill="#000000" fill-rule="evenodd" fill-opacity="1" /><path clip-path="url(#clip300)" d="M 0 0 M1232.85 1477.97 L1237.73 1477.97 L1237.73 1483.85 L1232.85 1483.85 L1232.85 1477.97 Z" fill="#000000" fill-rule="evenodd" fill-opacity="1" /><path clip-path="url(#clip300)" d="M 0 0 M1242.85 1449.29 L1261.2 1449.29 L1261.2 1453.23 L1247.13 1453.23 L1247.13 1461.7 Q1248.15 1461.35 1249.16 1461.19 Q1250.18 1461 1251.2 1461 Q1256.99 1461 1260.37 1464.18 Q1263.75 1467.35 1263.75 1472.76 Q1263.75 1478.34 1260.28 1481.44 Q1256.8 1484.52 1250.48 1484.52 Q1248.31 1484.52 1246.04 1484.15 Q1243.79 1483.78 1241.39 1483.04 L1241.39 1478.34 Q1243.47 1479.48 1245.69 1480.03 Q1247.91 1480.59 1250.39 1480.59 Q1254.4 1480.59 1256.73 1478.48 Q1259.07 1476.38 1259.07 1472.76 Q1259.07 1469.15 1256.73 1467.05 Q1254.4 1464.94 1250.39 1464.94 Q1248.52 1464.94 1246.64 1465.36 Q1244.79 1465.77 1242.85 1466.65 L1242.85 1449.29 Z" fill="#000000" fill-rule="evenodd" fill-opacity="1" /><path clip-path="url(#clip300)" d="M 0 0 M1278.82 1452.37 Q1275.21 1452.37 1273.38 1455.94 Q1271.57 1459.48 1271.57 1466.61 Q1271.57 1473.71 1273.38 1477.28 Q1275.21 1480.82 1278.82 1480.82 Q1282.45 1480.82 1284.26 1477.28 Q1286.09 1473.71 1286.09 1466.61 Q1286.09 1459.48 1284.26 1455.94 Q1282.45 1452.37 1278.82 1452.37 M1278.82 1448.67 Q1284.63 1448.67 1287.68 1453.27 Q1290.76 1457.86 1290.76 1466.61 Q1290.76 1475.33 1287.68 1479.94 Q1284.63 1484.52 1278.82 1484.52 Q1273.01 1484.52 1269.93 1479.94 Q1266.87 1475.33 1266.87 1466.61 Q1266.87 1457.86 1269.93 1453.27 Q1273.01 1448.67 1278.82 1448.67 Z" fill="#000000" fill-rule="evenodd" fill-opacity="1" /><path clip-path="url(#clip300)" d="M 0 0 M1674.56 1452.37 Q1670.95 1452.37 1669.12 1455.94 Q1667.32 1459.48 1667.32 1466.61 Q1667.32 1473.71 1669.12 1477.28 Q1670.95 1480.82 1674.56 1480.82 Q1678.19 1480.82 1680 1477.28 Q1681.83 1473.71 1681.83 1466.61 Q1681.83 1459.48 1680 1455.94 Q1678.19 1452.37 1674.56 1452.37 M1674.56 1448.67 Q1680.37 1448.67 1683.43 1453.27 Q1686.51 1457.86 1686.51 1466.61 Q1686.51 1475.33 1683.43 1479.94 Q1680.37 1484.52 1674.56 1484.52 Q1668.75 1484.52 1665.67 1479.94 Q1662.62 1475.33 1662.62 1466.61 Q1662.62 1457.86 1665.67 1453.27 Q1668.75 1448.67 1674.56 1448.67 Z" fill="#000000" fill-rule="evenodd" fill-opacity="1" /><path clip-path="url(#clip300)" d="M 0 0 M1691.57 1477.97 L1696.46 1477.97 L1696.46 1483.85 L1691.57 1483.85 L1691.57 1477.97 Z" fill="#000000" fill-rule="evenodd" fill-opacity="1" /><path clip-path="url(#clip300)" d="M 0 0 M1700.35 1449.29 L1722.57 1449.29 L1722.57 1451.28 L1710.02 1483.85 L1705.14 1483.85 L1716.94 1453.23 L1700.35 1453.23 L1700.35 1449.29 Z" fill="#000000" fill-rule="evenodd" fill-opacity="1" /><path clip-path="url(#clip300)" d="M 0 0 M1727.69 1449.29 L1746.04 1449.29 L1746.04 1453.23 L1731.97 1453.23 L1731.97 1461.7 Q1732.99 1461.35 1734 1461.19 Q1735.02 1461 1736.04 1461 Q1741.83 1461 1745.21 1464.18 Q1748.59 1467.35 1748.59 1472.76 Q1748.59 1478.34 1745.12 1481.44 Q1741.64 1484.52 1735.32 1484.52 Q1733.15 1484.52 1730.88 1484.15 Q1728.63 1483.78 1726.23 1483.04 L1726.23 1478.34 Q1728.31 1479.48 1730.53 1480.03 Q1732.75 1480.59 1735.23 1480.59 Q1739.24 1480.59 1741.57 1478.48 Q1743.91 1476.38 1743.91 1472.76 Q1743.91 1469.15 1741.57 1467.05 Q1739.24 1464.94 1735.23 1464.94 Q1733.36 1464.94 1731.48 1465.36 Q1729.63 1465.77 1727.69 1466.65 L1727.69 1449.29 Z" fill="#000000" fill-rule="evenodd" fill-opacity="1" /><path clip-path="url(#clip300)" d="M 0 0 M2122.27 1479.92 L2129.91 1479.92 L2129.91 1453.55 L2121.6 1455.22 L2121.6 1450.96 L2129.86 1449.29 L2134.54 1449.29 L2134.54 1479.92 L2142.18 1479.92 L2142.18 1483.85 L2122.27 1483.85 L2122.27 1479.92 Z" fill="#000000" fill-rule="evenodd" fill-opacity="1" /><path clip-path="url(#clip300)" d="M 0 0 M2147.25 1477.97 L2152.13 1477.97 L2152.13 1483.85 L2147.25 1483.85 L2147.25 1477.97 Z" fill="#000000" fill-rule="evenodd" fill-opacity="1" /><path clip-path="url(#clip300)" d="M 0 0 M2167.2 1452.37 Q2163.59 1452.37 2161.76 1455.94 Q2159.96 1459.48 2159.96 1466.61 Q2159.96 1473.71 2161.76 1477.28 Q2163.59 1480.82 2167.2 1480.82 Q2170.84 1480.82 2172.64 1477.28 Q2174.47 1473.71 2174.47 1466.61 Q2174.47 1459.48 2172.64 1455.94 Q2170.84 1452.37 2167.2 1452.37 M2167.2 1448.67 Q2173.01 1448.67 2176.07 1453.27 Q2179.15 1457.86 2179.15 1466.61 Q2179.15 1475.33 2176.07 1479.94 Q2173.01 1484.52 2167.2 1484.52 Q2161.39 1484.52 2158.31 1479.94 Q2155.26 1475.33 2155.26 1466.61 Q2155.26 1457.86 2158.31 1453.27 Q2161.39 1448.67 2167.2 1448.67 Z" fill="#000000" fill-rule="evenodd" fill-opacity="1" /><path clip-path="url(#clip300)" d="M 0 0 M2194.22 1452.37 Q2190.6 1452.37 2188.78 1455.94 Q2186.97 1459.48 2186.97 1466.61 Q2186.97 1473.71 2188.78 1477.28 Q2190.6 1480.82 2194.22 1480.82 Q2197.85 1480.82 2199.65 1477.28 Q2201.48 1473.71 2201.48 1466.61 Q2201.48 1459.48 2199.65 1455.94 Q2197.85 1452.37 2194.22 1452.37 M2194.22 1448.67 Q2200.03 1448.67 2203.08 1453.27 Q2206.16 1457.86 2206.16 1466.61 Q2206.16 1475.33 2203.08 1479.94 Q2200.03 1484.52 2194.22 1484.52 Q2188.4 1484.52 2185.33 1479.94 Q2182.27 1475.33 2182.27 1466.61 Q2182.27 1457.86 2185.33 1453.27 Q2188.4 1448.67 2194.22 1448.67 Z" fill="#000000" fill-rule="evenodd" fill-opacity="1" /><path clip-path="url(#clip300)" d="M 0 0 M1228.6 1508.52 L1235.03 1508.52 L1235.03 1556.04 L1228.6 1556.04 L1228.6 1508.52 Z" fill="#000000" fill-rule="evenodd" fill-opacity="1" /><path clip-path="url(#clip300)" d="M 0 0 M1269.92 1510.08 L1269.92 1516.35 Q1266.26 1514.6 1263.01 1513.74 Q1259.76 1512.88 1256.74 1512.88 Q1251.49 1512.88 1248.62 1514.92 Q1245.79 1516.96 1245.79 1520.71 Q1245.79 1523.87 1247.67 1525.49 Q1249.58 1527.08 1254.86 1528.07 L1258.74 1528.86 Q1265.94 1530.23 1269.34 1533.7 Q1272.78 1537.14 1272.78 1542.93 Q1272.78 1549.84 1268.13 1553.4 Q1263.52 1556.97 1254.58 1556.97 Q1251.2 1556.97 1247.38 1556.2 Q1243.59 1555.44 1239.52 1553.94 L1239.52 1547.32 Q1243.44 1549.52 1247.19 1550.63 Q1250.95 1551.75 1254.58 1551.75 Q1260.08 1551.75 1263.07 1549.58 Q1266.07 1547.42 1266.07 1543.41 Q1266.07 1539.91 1263.9 1537.93 Q1261.77 1535.96 1256.87 1534.97 L1252.95 1534.21 Q1245.76 1532.78 1242.54 1529.72 Q1239.33 1526.67 1239.33 1521.22 Q1239.33 1514.92 1243.75 1511.29 Q1248.21 1507.66 1256.01 1507.66 Q1259.35 1507.66 1262.82 1508.27 Q1266.29 1508.87 1269.92 1510.08 Z" fill="#000000" fill-rule="evenodd" fill-opacity="1" /><path clip-path="url(#clip300)" d="M 0 0 M1279.18 1508.52 L1285.61 1508.52 L1285.61 1556.04 L1279.18 1556.04 L1279.18 1508.52 Z" fill="#000000" fill-rule="evenodd" fill-opacity="1" /><path clip-path="url(#clip300)" d="M 0 0 M1311.93 1506.52 L1325.43 1506.52 L1325.43 1511.07 L1317.79 1511.07 L1317.79 1560.09 L1325.43 1560.09 L1325.43 1564.64 L1311.93 1564.64 L1311.93 1506.52 Z" fill="#000000" fill-rule="evenodd" fill-opacity="1" /><path clip-path="url(#clip300)" d="M 0 0 M1354.29 1521.45 L1354.29 1526.98 Q1351.81 1525.71 1349.14 1525.07 Q1346.46 1524.44 1343.6 1524.44 Q1339.24 1524.44 1337.04 1525.77 Q1334.88 1527.11 1334.88 1529.79 Q1334.88 1531.82 1336.44 1533 Q1338 1534.15 1342.71 1535.2 L1344.71 1535.64 Q1350.95 1536.98 1353.56 1539.43 Q1356.2 1541.85 1356.2 1546.21 Q1356.2 1551.17 1352.26 1554.07 Q1348.34 1556.97 1341.47 1556.97 Q1338.6 1556.97 1335.48 1556.39 Q1332.4 1555.85 1328.96 1554.74 L1328.96 1548.69 Q1332.2 1550.38 1335.36 1551.24 Q1338.51 1552.07 1341.59 1552.07 Q1345.73 1552.07 1347.96 1550.66 Q1350.19 1549.23 1350.19 1546.65 Q1350.19 1544.27 1348.56 1542.99 Q1346.97 1541.72 1341.53 1540.54 L1339.49 1540.07 Q1334.05 1538.92 1331.63 1536.56 Q1329.21 1534.18 1329.21 1530.04 Q1329.21 1525.01 1332.78 1522.27 Q1336.34 1519.54 1342.9 1519.54 Q1346.15 1519.54 1349.01 1520.01 Q1351.87 1520.49 1354.29 1521.45 Z" fill="#000000" fill-rule="evenodd" fill-opacity="1" /><path clip-path="url(#clip300)" d="M 0 0 M1376.03 1506.52 L1376.03 1564.64 L1362.54 1564.64 L1362.54 1560.09 L1370.14 1560.09 L1370.14 1511.07 L1362.54 1511.07 L1362.54 1506.52 L1376.03 1506.52 Z" fill="#000000" fill-rule="evenodd" fill-opacity="1" /><polyline clip-path="url(#clip302)" style="stroke:#000000; stroke-width:2; stroke-opacity:0.1; fill:none" points="
  251.88,1384.24 2352.76,1384.24 
  "/>
<polyline clip-path="url(#clip302)" style="stroke:#000000; stroke-width:2; stroke-opacity:0.1; fill:none" points="
  251.88,1098.83 2352.76,1098.83 
  "/>
<polyline clip-path="url(#clip302)" style="stroke:#000000; stroke-width:2; stroke-opacity:0.1; fill:none" points="
  251.88,813.415 2352.76,813.415 
  "/>
<polyline clip-path="url(#clip302)" style="stroke:#000000; stroke-width:2; stroke-opacity:0.1; fill:none" points="
  251.88,528.003 2352.76,528.003 
  "/>
<polyline clip-path="url(#clip302)" style="stroke:#000000; stroke-width:2; stroke-opacity:0.1; fill:none" points="
  251.88,242.591 2352.76,242.591 
  "/>
<polyline clip-path="url(#clip300)" style="stroke:#000000; stroke-width:4; stroke-opacity:1; fill:none" points="
  251.88,1423.18 251.88,47.2441 
  "/>
<polyline clip-path="url(#clip300)" style="stroke:#000000; stroke-width:4; stroke-opacity:1; fill:none" points="
  251.88,1384.24 277.09,1384.24 
  "/>
<polyline clip-path="url(#clip300)" style="stroke:#000000; stroke-width:4; stroke-opacity:1; fill:none" points="
  251.88,1098.83 277.09,1098.83 
  "/>
<polyline clip-path="url(#clip300)" style="stroke:#000000; stroke-width:4; stroke-opacity:1; fill:none" points="
  251.88,813.415 277.09,813.415 
  "/>
<polyline clip-path="url(#clip300)" style="stroke:#000000; stroke-width:4; stroke-opacity:1; fill:none" points="
  251.88,528.003 277.09,528.003 
  "/>
<polyline clip-path="url(#clip300)" style="stroke:#000000; stroke-width:4; stroke-opacity:1; fill:none" points="
  251.88,242.591 277.09,242.591 
  "/>
<path clip-path="url(#clip300)" d="M 0 0 M203.936 1370.04 Q200.325 1370.04 198.496 1373.6 Q196.69 1377.14 196.69 1384.27 Q196.69 1391.38 198.496 1394.94 Q200.325 1398.49 203.936 1398.49 Q207.57 1398.49 209.375 1394.94 Q211.204 1391.38 211.204 1384.27 Q211.204 1377.14 209.375 1373.6 Q207.57 1370.04 203.936 1370.04 M203.936 1366.33 Q209.746 1366.33 212.801 1370.94 Q215.88 1375.52 215.88 1384.27 Q215.88 1393 212.801 1397.61 Q209.746 1402.19 203.936 1402.19 Q198.125 1402.19 195.047 1397.61 Q191.991 1393 191.991 1384.27 Q191.991 1375.52 195.047 1370.94 Q198.125 1366.33 203.936 1366.33 Z" fill="#000000" fill-rule="evenodd" fill-opacity="1" /><path clip-path="url(#clip300)" d="M 0 0 M146.529 1112.17 L162.848 1112.17 L162.848 1116.11 L140.904 1116.11 L140.904 1112.17 Q143.566 1109.42 148.149 1104.79 Q152.755 1100.13 153.936 1098.79 Q156.181 1096.27 157.061 1094.53 Q157.964 1092.77 157.964 1091.08 Q157.964 1088.33 156.019 1086.59 Q154.098 1084.86 150.996 1084.86 Q148.797 1084.86 146.343 1085.62 Q143.913 1086.38 141.135 1087.94 L141.135 1083.21 Q143.959 1082.08 146.413 1081.5 Q148.866 1080.92 150.903 1080.92 Q156.274 1080.92 159.468 1083.61 Q162.663 1086.29 162.663 1090.78 Q162.663 1092.91 161.852 1094.83 Q161.065 1096.73 158.959 1099.32 Q158.38 1100 155.278 1103.21 Q152.177 1106.41 146.529 1112.17 Z" fill="#000000" fill-rule="evenodd" fill-opacity="1" /><path clip-path="url(#clip300)" d="M 0 0 M167.964 1081.55 L186.32 1081.55 L186.32 1085.48 L172.246 1085.48 L172.246 1093.95 Q173.264 1093.61 174.283 1093.44 Q175.301 1093.26 176.32 1093.26 Q182.107 1093.26 185.487 1096.43 Q188.866 1099.6 188.866 1105.02 Q188.866 1110.6 185.394 1113.7 Q181.922 1116.78 175.602 1116.78 Q173.427 1116.78 171.158 1116.41 Q168.913 1116.04 166.505 1115.3 L166.505 1110.6 Q168.589 1111.73 170.811 1112.29 Q173.033 1112.84 175.51 1112.84 Q179.514 1112.84 181.852 1110.74 Q184.19 1108.63 184.19 1105.02 Q184.19 1101.41 181.852 1099.3 Q179.514 1097.19 175.51 1097.19 Q173.635 1097.19 171.76 1097.61 Q169.908 1098.03 167.964 1098.91 L167.964 1081.55 Z" fill="#000000" fill-rule="evenodd" fill-opacity="1" /><path clip-path="url(#clip300)" d="M 0 0 M203.936 1084.63 Q200.325 1084.63 198.496 1088.19 Q196.69 1091.73 196.69 1098.86 Q196.69 1105.97 198.496 1109.53 Q200.325 1113.07 203.936 1113.07 Q207.57 1113.07 209.375 1109.53 Q211.204 1105.97 211.204 1098.86 Q211.204 1091.73 209.375 1088.19 Q207.57 1084.63 203.936 1084.63 M203.936 1080.92 Q209.746 1080.92 212.801 1085.53 Q215.88 1090.11 215.88 1098.86 Q215.88 1107.59 212.801 1112.19 Q209.746 1116.78 203.936 1116.78 Q198.125 1116.78 195.047 1112.19 Q191.991 1107.59 191.991 1098.86 Q191.991 1090.11 195.047 1085.53 Q198.125 1080.92 203.936 1080.92 Z" fill="#000000" fill-rule="evenodd" fill-opacity="1" /><path clip-path="url(#clip300)" d="M 0 0 M140.95 796.135 L159.306 796.135 L159.306 800.07 L145.232 800.07 L145.232 808.542 Q146.251 808.195 147.269 808.033 Q148.288 807.848 149.306 807.848 Q155.093 807.848 158.473 811.019 Q161.852 814.19 161.852 819.607 Q161.852 825.186 158.38 828.287 Q154.908 831.366 148.589 831.366 Q146.413 831.366 144.144 830.996 Q141.899 830.625 139.492 829.885 L139.492 825.186 Q141.575 826.32 143.797 826.875 Q146.019 827.431 148.496 827.431 Q152.501 827.431 154.839 825.324 Q157.177 823.218 157.177 819.607 Q157.177 815.996 154.839 813.889 Q152.501 811.783 148.496 811.783 Q146.621 811.783 144.746 812.2 Q142.894 812.616 140.95 813.496 L140.95 796.135 Z" fill="#000000" fill-rule="evenodd" fill-opacity="1" /><path clip-path="url(#clip300)" d="M 0 0 M176.922 799.213 Q173.311 799.213 171.482 802.778 Q169.677 806.32 169.677 813.45 Q169.677 820.556 171.482 824.121 Q173.311 827.662 176.922 827.662 Q180.556 827.662 182.362 824.121 Q184.19 820.556 184.19 813.45 Q184.19 806.32 182.362 802.778 Q180.556 799.213 176.922 799.213 M176.922 795.51 Q182.732 795.51 185.788 800.116 Q188.866 804.7 188.866 813.45 Q188.866 822.176 185.788 826.783 Q182.732 831.366 176.922 831.366 Q171.112 831.366 168.033 826.783 Q164.977 822.176 164.977 813.45 Q164.977 804.7 168.033 800.116 Q171.112 795.51 176.922 795.51 Z" fill="#000000" fill-rule="evenodd" fill-opacity="1" /><path clip-path="url(#clip300)" d="M 0 0 M203.936 799.213 Q200.325 799.213 198.496 802.778 Q196.69 806.32 196.69 813.45 Q196.69 820.556 198.496 824.121 Q200.325 827.662 203.936 827.662 Q207.57 827.662 209.375 824.121 Q211.204 820.556 211.204 813.45 Q211.204 806.32 209.375 802.778 Q207.57 799.213 203.936 799.213 M203.936 795.51 Q209.746 795.51 212.801 800.116 Q215.88 804.7 215.88 813.45 Q215.88 822.176 212.801 826.783 Q209.746 831.366 203.936 831.366 Q198.125 831.366 195.047 826.783 Q191.991 822.176 191.991 813.45 Q191.991 804.7 195.047 800.116 Q198.125 795.51 203.936 795.51 Z" fill="#000000" fill-rule="evenodd" fill-opacity="1" /><path clip-path="url(#clip300)" d="M 0 0 M140.626 510.723 L162.848 510.723 L162.848 512.714 L150.302 545.283 L145.417 545.283 L157.223 514.658 L140.626 514.658 L140.626 510.723 Z" fill="#000000" fill-rule="evenodd" fill-opacity="1" /><path clip-path="url(#clip300)" d="M 0 0 M167.964 510.723 L186.32 510.723 L186.32 514.658 L172.246 514.658 L172.246 523.13 Q173.264 522.783 174.283 522.621 Q175.301 522.436 176.32 522.436 Q182.107 522.436 185.487 525.607 Q188.866 528.779 188.866 534.195 Q188.866 539.774 185.394 542.876 Q181.922 545.954 175.602 545.954 Q173.427 545.954 171.158 545.584 Q168.913 545.214 166.505 544.473 L166.505 539.774 Q168.589 540.908 170.811 541.464 Q173.033 542.019 175.51 542.019 Q179.514 542.019 181.852 539.913 Q184.19 537.806 184.19 534.195 Q184.19 530.584 181.852 528.478 Q179.514 526.371 175.51 526.371 Q173.635 526.371 171.76 526.788 Q169.908 527.204 167.964 528.084 L167.964 510.723 Z" fill="#000000" fill-rule="evenodd" fill-opacity="1" /><path clip-path="url(#clip300)" d="M 0 0 M203.936 513.802 Q200.325 513.802 198.496 517.367 Q196.69 520.908 196.69 528.038 Q196.69 535.144 198.496 538.709 Q200.325 542.251 203.936 542.251 Q207.57 542.251 209.375 538.709 Q211.204 535.144 211.204 528.038 Q211.204 520.908 209.375 517.367 Q207.57 513.802 203.936 513.802 M203.936 510.098 Q209.746 510.098 212.801 514.705 Q215.88 519.288 215.88 528.038 Q215.88 536.765 212.801 541.371 Q209.746 545.954 203.936 545.954 Q198.125 545.954 195.047 541.371 Q191.991 536.765 191.991 528.038 Q191.991 519.288 195.047 514.705 Q198.125 510.098 203.936 510.098 Z" fill="#000000" fill-rule="evenodd" fill-opacity="1" /><path clip-path="url(#clip300)" d="M 0 0 M114.931 255.936 L122.57 255.936 L122.57 229.571 L114.26 231.237 L114.26 226.978 L122.524 225.311 L127.2 225.311 L127.2 255.936 L134.839 255.936 L134.839 259.871 L114.931 259.871 L114.931 255.936 Z" fill="#000000" fill-rule="evenodd" fill-opacity="1" /><path clip-path="url(#clip300)" d="M 0 0 M149.908 228.39 Q146.297 228.39 144.468 231.955 Q142.663 235.496 142.663 242.626 Q142.663 249.732 144.468 253.297 Q146.297 256.839 149.908 256.839 Q153.542 256.839 155.348 253.297 Q157.177 249.732 157.177 242.626 Q157.177 235.496 155.348 231.955 Q153.542 228.39 149.908 228.39 M149.908 224.686 Q155.718 224.686 158.774 229.293 Q161.852 233.876 161.852 242.626 Q161.852 251.353 158.774 255.959 Q155.718 260.543 149.908 260.543 Q144.098 260.543 141.019 255.959 Q137.964 251.353 137.964 242.626 Q137.964 233.876 141.019 229.293 Q144.098 224.686 149.908 224.686 Z" fill="#000000" fill-rule="evenodd" fill-opacity="1" /><path clip-path="url(#clip300)" d="M 0 0 M176.922 228.39 Q173.311 228.39 171.482 231.955 Q169.677 235.496 169.677 242.626 Q169.677 249.732 171.482 253.297 Q173.311 256.839 176.922 256.839 Q180.556 256.839 182.362 253.297 Q184.19 249.732 184.19 242.626 Q184.19 235.496 182.362 231.955 Q180.556 228.39 176.922 228.39 M176.922 224.686 Q182.732 224.686 185.788 229.293 Q188.866 233.876 188.866 242.626 Q188.866 251.353 185.788 255.959 Q182.732 260.543 176.922 260.543 Q171.112 260.543 168.033 255.959 Q164.977 251.353 164.977 242.626 Q164.977 233.876 168.033 229.293 Q171.112 224.686 176.922 224.686 Z" fill="#000000" fill-rule="evenodd" fill-opacity="1" /><path clip-path="url(#clip300)" d="M 0 0 M203.936 228.39 Q200.325 228.39 198.496 231.955 Q196.69 235.496 196.69 242.626 Q196.69 249.732 198.496 253.297 Q200.325 256.839 203.936 256.839 Q207.57 256.839 209.375 253.297 Q211.204 249.732 211.204 242.626 Q211.204 235.496 209.375 231.955 Q207.57 228.39 203.936 228.39 M203.936 224.686 Q209.746 224.686 212.801 229.293 Q215.88 233.876 215.88 242.626 Q215.88 251.353 212.801 255.959 Q209.746 260.543 203.936 260.543 Q198.125 260.543 195.047 255.959 Q191.991 251.353 191.991 242.626 Q191.991 233.876 195.047 229.293 Q198.125 224.686 203.936 224.686 Z" fill="#000000" fill-rule="evenodd" fill-opacity="1" /><path clip-path="url(#clip300)" d="M 0 0 M40.4842 1069.75 L40.4842 1061.09 L80.238 1040.02 L40.4842 1040.02 L40.4842 1033.78 L88.0042 1033.78 L88.0042 1042.44 L48.2503 1063.51 L88.0042 1063.51 L88.0042 1069.75 L40.4842 1069.75 Z" fill="#000000" fill-rule="evenodd" fill-opacity="1" /><path clip-path="url(#clip300)" d="M 0 0 M73.9359 1028.24 L52.3562 1028.24 L52.3562 1022.38 L73.7131 1022.38 Q78.7739 1022.38 81.3202 1020.41 Q83.8346 1018.44 83.8346 1014.49 Q83.8346 1009.75 80.8109 1007.01 Q77.7872 1004.24 72.5673 1004.24 L52.3562 1004.24 L52.3562 998.386 L88.0042 998.386 L88.0042 1004.24 L82.5296 1004.24 Q85.7762 1006.38 87.3676 1009.21 Q88.9272 1012.01 88.9272 1015.73 Q88.9272 1021.88 85.1078 1025.06 Q81.2883 1028.24 73.9359 1028.24 M51.4968 1013.5 L51.4968 1013.5 Z" fill="#000000" fill-rule="evenodd" fill-opacity="1" /><path clip-path="url(#clip300)" d="M 0 0 M59.1993 964.489 Q55.2526 962.293 53.3747 959.237 Q51.4968 956.182 51.4968 952.044 Q51.4968 946.474 55.4117 943.45 Q59.2948 940.426 66.4881 940.426 L88.0042 940.426 L88.0042 946.315 L66.679 946.315 Q61.5546 946.315 59.072 948.129 Q56.5894 949.943 56.5894 953.667 Q56.5894 958.219 59.6131 960.86 Q62.6368 963.502 67.8567 963.502 L88.0042 963.502 L88.0042 969.39 L66.679 969.39 Q61.5228 969.39 59.072 971.205 Q56.5894 973.019 56.5894 976.806 Q56.5894 981.294 59.6449 983.936 Q62.6686 986.578 67.8567 986.578 L88.0042 986.578 L88.0042 992.466 L52.3562 992.466 L52.3562 986.578 L57.8944 986.578 Q54.616 984.573 53.0564 981.772 Q51.4968 978.971 51.4968 975.12 Q51.4968 971.236 53.4702 968.531 Q55.4436 965.794 59.1993 964.489 Z" fill="#000000" fill-rule="evenodd" fill-opacity="1" /><path clip-path="url(#clip300)" d="M 0 0 M70.212 908.693 Q63.7508 908.693 60.0905 911.367 Q56.3984 914.009 56.3984 918.656 Q56.3984 923.303 60.0905 925.976 Q63.7508 928.618 70.212 928.618 Q76.6732 928.618 80.3653 925.976 Q84.0256 923.303 84.0256 918.656 Q84.0256 914.009 80.3653 911.367 Q76.6732 908.693 70.212 908.693 M57.7671 928.618 Q54.5842 926.772 53.0564 923.971 Q51.4968 921.138 51.4968 917.223 Q51.4968 910.73 56.6531 906.688 Q61.8093 902.614 70.212 902.614 Q78.6147 902.614 83.771 906.688 Q88.9272 910.73 88.9272 917.223 Q88.9272 921.138 87.3994 923.971 Q85.8398 926.772 82.657 928.618 L88.0042 928.618 L88.0042 934.506 L38.479 934.506 L38.479 928.618 L57.7671 928.618 Z" fill="#000000" fill-rule="evenodd" fill-opacity="1" /><path clip-path="url(#clip300)" d="M 0 0 M68.7161 865.979 L71.5806 865.979 L71.5806 892.906 Q77.6281 892.524 80.8109 889.278 Q83.9619 886 83.9619 880.175 Q83.9619 876.801 83.1344 873.65 Q82.3069 870.467 80.6518 867.348 L86.1899 867.348 Q87.5267 870.499 88.227 873.809 Q88.9272 877.119 88.9272 880.525 Q88.9272 889.055 83.9619 894.052 Q78.9967 899.018 70.5303 899.018 Q61.7774 899.018 56.6531 894.307 Q51.4968 889.564 51.4968 881.544 Q51.4968 874.35 56.1438 870.181 Q60.7589 865.979 68.7161 865.979 M66.9973 871.836 Q62.1912 871.9 59.3266 874.541 Q56.4621 877.151 56.4621 881.48 Q56.4621 886.382 59.2312 889.342 Q62.0002 892.27 67.0292 892.715 L66.9973 871.836 Z" fill="#000000" fill-rule="evenodd" fill-opacity="1" /><path clip-path="url(#clip300)" d="M 0 0 M57.8307 839.18 Q57.2578 840.167 57.0032 841.344 Q56.7167 842.49 56.7167 843.89 Q56.7167 848.856 59.9632 851.529 Q63.1779 854.171 69.2253 854.171 L88.0042 854.171 L88.0042 860.059 L52.3562 860.059 L52.3562 854.171 L57.8944 854.171 Q54.6479 852.325 53.0883 849.365 Q51.4968 846.405 51.4968 842.172 Q51.4968 841.567 51.5923 840.835 Q51.656 840.103 51.8151 839.212 L57.8307 839.18 Z" fill="#000000" fill-rule="evenodd" fill-opacity="1" /><path clip-path="url(#clip300)" d="M 0 0 M56.4621 798.503 Q56.4621 803.214 60.1542 805.951 Q63.8145 808.688 70.212 808.688 Q76.6095 808.688 80.3017 805.983 Q83.9619 803.245 83.9619 798.503 Q83.9619 793.824 80.2698 791.087 Q76.5777 788.35 70.212 788.35 Q63.8781 788.35 60.186 791.087 Q56.4621 793.824 56.4621 798.503 M51.4968 798.503 Q51.4968 790.864 56.4621 786.504 Q61.4273 782.143 70.212 782.143 Q78.9649 782.143 83.9619 786.504 Q88.9272 790.864 88.9272 798.503 Q88.9272 806.174 83.9619 810.534 Q78.9649 814.863 70.212 814.863 Q61.4273 814.863 56.4621 810.534 Q51.4968 806.174 51.4968 798.503 Z" fill="#000000" fill-rule="evenodd" fill-opacity="1" /><path clip-path="url(#clip300)" d="M 0 0 M38.479 757.953 L43.3487 757.953 L43.3487 763.555 Q43.3487 766.706 44.6219 767.948 Q45.895 769.157 49.2052 769.157 L52.3562 769.157 L52.3562 759.513 L56.9077 759.513 L56.9077 769.157 L88.0042 769.157 L88.0042 775.045 L56.9077 775.045 L56.9077 780.647 L52.3562 780.647 L52.3562 775.045 L49.8736 775.045 Q43.9216 775.045 41.2162 772.276 Q38.479 769.507 38.479 763.492 L38.479 757.953 Z" fill="#000000" fill-rule="evenodd" fill-opacity="1" /><path clip-path="url(#clip300)" d="M 0 0 M53.4065 708.365 L58.9447 708.365 Q57.6716 710.847 57.035 713.521 Q56.3984 716.194 56.3984 719.059 Q56.3984 723.419 57.7352 725.616 Q59.072 727.78 61.7456 727.78 Q63.7826 727.78 64.9603 726.22 Q66.1061 724.661 67.1565 719.95 L67.6021 717.945 Q68.9389 711.707 71.3897 709.097 Q73.8086 706.455 78.1691 706.455 Q83.1344 706.455 86.0308 710.402 Q88.9272 714.317 88.9272 721.191 Q88.9272 724.056 88.3543 727.175 Q87.8132 730.263 86.6992 733.7 L80.6518 733.7 Q82.3387 730.454 83.198 727.303 Q84.0256 724.152 84.0256 721.064 Q84.0256 716.926 82.6251 714.698 Q81.1929 712.47 78.6147 712.47 Q76.2276 712.47 74.9545 714.094 Q73.6813 715.685 72.5037 721.128 L72.0262 723.165 Q70.8804 728.608 68.5251 731.027 Q66.138 733.445 62.0002 733.445 Q56.9713 733.445 54.2341 729.881 Q51.4968 726.316 51.4968 719.759 Q51.4968 716.513 51.9743 713.648 Q52.4517 710.784 53.4065 708.365 Z" fill="#000000" fill-rule="evenodd" fill-opacity="1" /><path clip-path="url(#clip300)" d="M 0 0 M82.657 694.647 L101.563 694.647 L101.563 700.535 L52.3562 700.535 L52.3562 694.647 L57.7671 694.647 Q54.5842 692.8 53.0564 690 Q51.4968 687.167 51.4968 683.252 Q51.4968 676.759 56.6531 672.717 Q61.8093 668.643 70.212 668.643 Q78.6147 668.643 83.771 672.717 Q88.9272 676.759 88.9272 683.252 Q88.9272 687.167 87.3994 690 Q85.8398 692.8 82.657 694.647 M70.212 674.722 Q63.7508 674.722 60.0905 677.395 Q56.3984 680.037 56.3984 684.684 Q56.3984 689.331 60.0905 692.005 Q63.7508 694.647 70.212 694.647 Q76.6732 694.647 80.3653 692.005 Q84.0256 689.331 84.0256 684.684 Q84.0256 680.037 80.3653 677.395 Q76.6732 674.722 70.212 674.722 Z" fill="#000000" fill-rule="evenodd" fill-opacity="1" /><path clip-path="url(#clip300)" d="M 0 0 M52.3562 662.5 L52.3562 656.643 L88.0042 656.643 L88.0042 662.5 L52.3562 662.5 M38.479 662.5 L38.479 656.643 L45.895 656.643 L45.895 662.5 L38.479 662.5 Z" fill="#000000" fill-rule="evenodd" fill-opacity="1" /><path clip-path="url(#clip300)" d="M 0 0 M38.479 650.723 L38.479 644.835 L67.7294 644.835 L52.3562 627.361 L52.3562 619.881 L69.0344 638.787 L88.0042 619.086 L88.0042 626.724 L70.5939 644.835 L88.0042 644.835 L88.0042 650.723 L38.479 650.723 Z" fill="#000000" fill-rule="evenodd" fill-opacity="1" /><path clip-path="url(#clip300)" d="M 0 0 M68.7161 584.774 L71.5806 584.774 L71.5806 611.701 Q77.6281 611.319 80.8109 608.073 Q83.9619 604.795 83.9619 598.97 Q83.9619 595.596 83.1344 592.445 Q82.3069 589.262 80.6518 586.143 L86.1899 586.143 Q87.5267 589.294 88.227 592.604 Q88.9272 595.914 88.9272 599.32 Q88.9272 607.85 83.9619 612.847 Q78.9967 617.812 70.5303 617.812 Q61.7774 617.812 56.6531 613.102 Q51.4968 608.359 51.4968 600.339 Q51.4968 593.145 56.1438 588.976 Q60.7589 584.774 68.7161 584.774 M66.9973 590.631 Q62.1912 590.695 59.3266 593.336 Q56.4621 595.946 56.4621 600.275 Q56.4621 605.176 59.2312 608.137 Q62.0002 611.065 67.0292 611.51 L66.9973 590.631 Z" fill="#000000" fill-rule="evenodd" fill-opacity="1" /><path clip-path="url(#clip300)" d="M 0 0 M42.2347 552.118 L52.3562 552.118 L52.3562 540.055 L56.9077 540.055 L56.9077 552.118 L76.2594 552.118 Q80.6199 552.118 81.8613 550.941 Q83.1026 549.731 83.1026 546.071 L83.1026 540.055 L88.0042 540.055 L88.0042 546.071 Q88.0042 552.85 85.4897 555.428 Q82.9434 558.007 76.2594 558.007 L56.9077 558.007 L56.9077 562.303 L52.3562 562.303 L52.3562 558.007 L42.2347 558.007 L42.2347 552.118 Z" fill="#000000" fill-rule="evenodd" fill-opacity="1" /><path clip-path="url(#clip300)" d="M 0 0 M57.8307 513.256 Q57.2578 514.242 57.0032 515.42 Q56.7167 516.566 56.7167 517.966 Q56.7167 522.932 59.9632 525.605 Q63.1779 528.247 69.2253 528.247 L88.0042 528.247 L88.0042 534.135 L52.3562 534.135 L52.3562 528.247 L57.8944 528.247 Q54.6479 526.401 53.0883 523.441 Q51.4968 520.481 51.4968 516.248 Q51.4968 515.643 51.5923 514.911 Q51.656 514.179 51.8151 513.288 L57.8307 513.256 Z" fill="#000000" fill-rule="evenodd" fill-opacity="1" /><path clip-path="url(#clip300)" d="M 0 0 M52.3562 507.113 L52.3562 501.256 L88.0042 501.256 L88.0042 507.113 L52.3562 507.113 M38.479 507.113 L38.479 501.256 L45.895 501.256 L45.895 507.113 L38.479 507.113 Z" fill="#000000" fill-rule="evenodd" fill-opacity="1" /><path clip-path="url(#clip300)" d="M 0 0 M70.0847 478.913 Q70.0847 486.01 71.7079 488.748 Q73.3312 491.485 77.2461 491.485 Q80.3653 491.485 82.2114 489.448 Q84.0256 487.379 84.0256 483.846 Q84.0256 478.976 80.5881 476.048 Q77.1188 473.088 71.3897 473.088 L70.0847 473.088 L70.0847 478.913 M67.6657 467.232 L88.0042 467.232 L88.0042 473.088 L82.5933 473.088 Q85.8398 475.093 87.3994 478.085 Q88.9272 481.077 88.9272 485.406 Q88.9272 490.88 85.8716 494.127 Q82.7843 497.341 77.6281 497.341 Q71.6125 497.341 68.5569 493.331 Q65.5014 489.289 65.5014 481.3 L65.5014 473.088 L64.9285 473.088 Q60.8862 473.088 58.6901 475.762 Q56.4621 478.403 56.4621 483.21 Q56.4621 486.265 57.1941 489.161 Q57.9262 492.058 59.3903 494.731 L53.9795 494.731 Q52.7381 491.517 52.1334 488.493 Q51.4968 485.469 51.4968 482.605 Q51.4968 474.87 55.5072 471.051 Q59.5176 467.232 67.6657 467.232 Z" fill="#000000" fill-rule="evenodd" fill-opacity="1" /><path clip-path="url(#clip300)" d="M 0 0 M66.4881 431.456 L88.0042 431.456 L88.0042 437.313 L66.679 437.313 Q61.6183 437.313 59.1038 439.286 Q56.5894 441.26 56.5894 445.206 Q56.5894 449.949 59.6131 452.686 Q62.6368 455.423 67.8567 455.423 L88.0042 455.423 L88.0042 461.312 L52.3562 461.312 L52.3562 455.423 L57.8944 455.423 Q54.6797 453.323 53.0883 450.49 Q51.4968 447.625 51.4968 443.901 Q51.4968 437.758 55.3163 434.607 Q59.1038 431.456 66.4881 431.456 Z" fill="#000000" fill-rule="evenodd" fill-opacity="1" /><path clip-path="url(#clip300)" d="M 0 0 M53.4065 402.588 L58.9447 402.588 Q57.6716 405.071 57.035 407.744 Q56.3984 410.418 56.3984 413.282 Q56.3984 417.643 57.7352 419.839 Q59.072 422.003 61.7456 422.003 Q63.7826 422.003 64.9603 420.444 Q66.1061 418.884 67.1565 414.173 L67.6021 412.168 Q68.9389 405.93 71.3897 403.32 Q73.8086 400.678 78.1691 400.678 Q83.1344 400.678 86.0308 404.625 Q88.9272 408.54 88.9272 415.415 Q88.9272 418.279 88.3543 421.399 Q87.8132 424.486 86.6992 427.923 L80.6518 427.923 Q82.3387 424.677 83.198 421.526 Q84.0256 418.375 84.0256 415.287 Q84.0256 411.15 82.6251 408.922 Q81.1929 406.694 78.6147 406.694 Q76.2276 406.694 74.9545 408.317 Q73.6813 409.908 72.5037 415.351 L72.0262 417.388 Q70.8804 422.831 68.5251 425.25 Q66.138 427.669 62.0002 427.669 Q56.9713 427.669 54.2341 424.104 Q51.4968 420.539 51.4968 413.982 Q51.4968 410.736 51.9743 407.871 Q52.4517 405.007 53.4065 402.588 Z" fill="#000000" fill-rule="evenodd" fill-opacity="1" /><path clip-path="url(#clip302)" d="
M367.432 1331.72 L367.432 1384.24 L404.094 1384.24 L404.094 1331.72 L367.432 1331.72 L367.432 1331.72  Z
  " fill="#009af9" fill-rule="evenodd" fill-opacity="1"/>
<polyline clip-path="url(#clip302)" style="stroke:#000000; stroke-width:4; stroke-opacity:1; fill:none" points="
  367.432,1331.72 367.432,1384.24 404.094,1384.24 404.094,1331.72 367.432,1331.72 
  "/>
<path clip-path="url(#clip302)" d="
M404.094 1181.03 L404.094 1384.24 L440.756 1384.24 L440.756 1181.03 L404.094 1181.03 L404.094 1181.03  Z
  " fill="#009af9" fill-rule="evenodd" fill-opacity="1"/>
<polyline clip-path="url(#clip302)" style="stroke:#000000; stroke-width:4; stroke-opacity:1; fill:none" points="
  404.094,1181.03 404.094,1384.24 440.756,1384.24 440.756,1181.03 404.094,1181.03 
  "/>
<path clip-path="url(#clip302)" d="
M440.756 984.662 L440.756 1384.24 L477.418 1384.24 L477.418 984.662 L440.756 984.662 L440.756 984.662  Z
  " fill="#009af9" fill-rule="evenodd" fill-opacity="1"/>
<polyline clip-path="url(#clip302)" style="stroke:#000000; stroke-width:4; stroke-opacity:1; fill:none" points="
  440.756,984.662 440.756,1384.24 477.418,1384.24 477.418,984.662 440.756,984.662 
  "/>
<path clip-path="url(#clip302)" d="
M477.418 754.049 L477.418 1384.24 L514.081 1384.24 L514.081 754.049 L477.418 754.049 L477.418 754.049  Z
  " fill="#009af9" fill-rule="evenodd" fill-opacity="1"/>
<polyline clip-path="url(#clip302)" style="stroke:#000000; stroke-width:4; stroke-opacity:1; fill:none" points="
  477.418,754.049 477.418,1384.24 514.081,1384.24 514.081,754.049 477.418,754.049 
  "/>
<path clip-path="url(#clip302)" d="
M514.081 482.337 L514.081 1384.24 L550.743 1384.24 L550.743 482.337 L514.081 482.337 L514.081 482.337  Z
  " fill="#009af9" fill-rule="evenodd" fill-opacity="1"/>
<polyline clip-path="url(#clip302)" style="stroke:#000000; stroke-width:4; stroke-opacity:1; fill:none" points="
  514.081,482.337 514.081,1384.24 550.743,1384.24 550.743,482.337 514.081,482.337 
  "/>
<path clip-path="url(#clip302)" d="
M550.743 308.807 L550.743 1384.24 L587.405 1384.24 L587.405 308.807 L550.743 308.807 L550.743 308.807  Z
  " fill="#009af9" fill-rule="evenodd" fill-opacity="1"/>
<polyline clip-path="url(#clip302)" style="stroke:#000000; stroke-width:4; stroke-opacity:1; fill:none" points="
  550.743,308.807 550.743,1384.24 587.405,1384.24 587.405,308.807 550.743,308.807 
  "/>
<path clip-path="url(#clip302)" d="
M587.405 183.226 L587.405 1384.24 L624.067 1384.24 L624.067 183.226 L587.405 183.226 L587.405 183.226  Z
  " fill="#009af9" fill-rule="evenodd" fill-opacity="1"/>
<polyline clip-path="url(#clip302)" style="stroke:#000000; stroke-width:4; stroke-opacity:1; fill:none" points="
  587.405,183.226 587.405,1384.24 624.067,1384.24 624.067,183.226 587.405,183.226 
  "/>
<path clip-path="url(#clip302)" d="
M624.067 163.818 L624.067 1384.24 L660.729 1384.24 L660.729 163.818 L624.067 163.818 L624.067 163.818  Z
  " fill="#009af9" fill-rule="evenodd" fill-opacity="1"/>
<polyline clip-path="url(#clip302)" style="stroke:#000000; stroke-width:4; stroke-opacity:1; fill:none" points="
  624.067,163.818 624.067,1384.24 660.729,1384.24 660.729,163.818 624.067,163.818 
  "/>
<path clip-path="url(#clip302)" d="
M660.729 86.1857 L660.729 1384.24 L697.392 1384.24 L697.392 86.1857 L660.729 86.1857 L660.729 86.1857  Z
  " fill="#009af9" fill-rule="evenodd" fill-opacity="1"/>
<polyline clip-path="url(#clip302)" style="stroke:#000000; stroke-width:4; stroke-opacity:1; fill:none" points="
  660.729,86.1857 660.729,1384.24 697.392,1384.24 697.392,86.1857 660.729,86.1857 
  "/>
<path clip-path="url(#clip302)" d="
M697.392 188.934 L697.392 1384.24 L734.054 1384.24 L734.054 188.934 L697.392 188.934 L697.392 188.934  Z
  " fill="#009af9" fill-rule="evenodd" fill-opacity="1"/>
<polyline clip-path="url(#clip302)" style="stroke:#000000; stroke-width:4; stroke-opacity:1; fill:none" points="
  697.392,188.934 697.392,1384.24 734.054,1384.24 734.054,188.934 697.392,188.934 
  "/>
<path clip-path="url(#clip302)" d="
M734.054 293.965 L734.054 1384.24 L770.716 1384.24 L770.716 293.965 L734.054 293.965 L734.054 293.965  Z
  " fill="#009af9" fill-rule="evenodd" fill-opacity="1"/>
<polyline clip-path="url(#clip302)" style="stroke:#000000; stroke-width:4; stroke-opacity:1; fill:none" points="
  734.054,293.965 734.054,1384.24 770.716,1384.24 770.716,293.965 734.054,293.965 
  "/>
<path clip-path="url(#clip302)" d="
M770.716 255.149 L770.716 1384.24 L807.378 1384.24 L807.378 255.149 L770.716 255.149 L770.716 255.149  Z
  " fill="#009af9" fill-rule="evenodd" fill-opacity="1"/>
<polyline clip-path="url(#clip302)" style="stroke:#000000; stroke-width:4; stroke-opacity:1; fill:none" points="
  770.716,255.149 770.716,1384.24 807.378,1384.24 807.378,255.149 770.716,255.149 
  "/>
<path clip-path="url(#clip302)" d="
M807.378 411.555 L807.378 1384.24 L844.04 1384.24 L844.04 411.555 L807.378 411.555 L807.378 411.555  Z
  " fill="#009af9" fill-rule="evenodd" fill-opacity="1"/>
<polyline clip-path="url(#clip302)" style="stroke:#000000; stroke-width:4; stroke-opacity:1; fill:none" points="
  807.378,411.555 807.378,1384.24 844.04,1384.24 844.04,411.555 807.378,411.555 
  "/>
<path clip-path="url(#clip302)" d="
M844.04 478.912 L844.04 1384.24 L880.703 1384.24 L880.703 478.912 L844.04 478.912 L844.04 478.912  Z
  " fill="#009af9" fill-rule="evenodd" fill-opacity="1"/>
<polyline clip-path="url(#clip302)" style="stroke:#000000; stroke-width:4; stroke-opacity:1; fill:none" points="
  844.04,478.912 844.04,1384.24 880.703,1384.24 880.703,478.912 844.04,478.912 
  "/>
<path clip-path="url(#clip302)" d="
M880.703 562.252 L880.703 1384.24 L917.365 1384.24 L917.365 562.252 L880.703 562.252 L880.703 562.252  Z
  " fill="#009af9" fill-rule="evenodd" fill-opacity="1"/>
<polyline clip-path="url(#clip302)" style="stroke:#000000; stroke-width:4; stroke-opacity:1; fill:none" points="
  880.703,562.252 880.703,1384.24 917.365,1384.24 917.365,562.252 880.703,562.252 
  "/>
<path clip-path="url(#clip302)" d="
M917.365 710.667 L917.365 1384.24 L954.027 1384.24 L954.027 710.667 L917.365 710.667 L917.365 710.667  Z
  " fill="#009af9" fill-rule="evenodd" fill-opacity="1"/>
<polyline clip-path="url(#clip302)" style="stroke:#000000; stroke-width:4; stroke-opacity:1; fill:none" points="
  917.365,710.667 917.365,1384.24 954.027,1384.24 954.027,710.667 917.365,710.667 
  "/>
<path clip-path="url(#clip302)" d="
M954.027 812.273 L954.027 1384.24 L990.689 1384.24 L990.689 812.273 L954.027 812.273 L954.027 812.273  Z
  " fill="#009af9" fill-rule="evenodd" fill-opacity="1"/>
<polyline clip-path="url(#clip302)" style="stroke:#000000; stroke-width:4; stroke-opacity:1; fill:none" points="
  954.027,812.273 954.027,1384.24 990.689,1384.24 990.689,812.273 954.027,812.273 
  "/>
<path clip-path="url(#clip302)" d="
M990.689 860.222 L990.689 1384.24 L1027.35 1384.24 L1027.35 860.222 L990.689 860.222 L990.689 860.222  Z
  " fill="#009af9" fill-rule="evenodd" fill-opacity="1"/>
<polyline clip-path="url(#clip302)" style="stroke:#000000; stroke-width:4; stroke-opacity:1; fill:none" points="
  990.689,860.222 990.689,1384.24 1027.35,1384.24 1027.35,860.222 990.689,860.222 
  "/>
<path clip-path="url(#clip302)" d="
M1027.35 938.996 L1027.35 1384.24 L1064.01 1384.24 L1064.01 938.996 L1027.35 938.996 L1027.35 938.996  Z
  " fill="#009af9" fill-rule="evenodd" fill-opacity="1"/>
<polyline clip-path="url(#clip302)" style="stroke:#000000; stroke-width:4; stroke-opacity:1; fill:none" points="
  1027.35,938.996 1027.35,1384.24 1064.01,1384.24 1064.01,938.996 1027.35,938.996 
  "/>
<path clip-path="url(#clip302)" d="
M1064.01 1022.34 L1064.01 1384.24 L1100.68 1384.24 L1100.68 1022.34 L1064.01 1022.34 L1064.01 1022.34  Z
  " fill="#009af9" fill-rule="evenodd" fill-opacity="1"/>
<polyline clip-path="url(#clip302)" style="stroke:#000000; stroke-width:4; stroke-opacity:1; fill:none" points="
  1064.01,1022.34 1064.01,1384.24 1100.68,1384.24 1100.68,1022.34 1064.01,1022.34 
  "/>
<path clip-path="url(#clip302)" d="
M1100.68 1098.83 L1100.68 1384.24 L1137.34 1384.24 L1137.34 1098.83 L1100.68 1098.83 L1100.68 1098.83  Z
  " fill="#009af9" fill-rule="evenodd" fill-opacity="1"/>
<polyline clip-path="url(#clip302)" style="stroke:#000000; stroke-width:4; stroke-opacity:1; fill:none" points="
  1100.68,1098.83 1100.68,1384.24 1137.34,1384.24 1137.34,1098.83 1100.68,1098.83 
  "/>
<path clip-path="url(#clip302)" d="
M1137.34 1157.05 L1137.34 1384.24 L1174 1384.24 L1174 1157.05 L1137.34 1157.05 L1137.34 1157.05  Z
  " fill="#009af9" fill-rule="evenodd" fill-opacity="1"/>
<polyline clip-path="url(#clip302)" style="stroke:#000000; stroke-width:4; stroke-opacity:1; fill:none" points="
  1137.34,1157.05 1137.34,1384.24 1174,1384.24 1174,1157.05 1137.34,1157.05 
  "/>
<path clip-path="url(#clip302)" d="
M1174 1198.15 L1174 1384.24 L1210.66 1384.24 L1210.66 1198.15 L1174 1198.15 L1174 1198.15  Z
  " fill="#009af9" fill-rule="evenodd" fill-opacity="1"/>
<polyline clip-path="url(#clip302)" style="stroke:#000000; stroke-width:4; stroke-opacity:1; fill:none" points="
  1174,1198.15 1174,1384.24 1210.66,1384.24 1210.66,1198.15 1174,1198.15 
  "/>
<path clip-path="url(#clip302)" d="
M1210.66 1238.11 L1210.66 1384.24 L1247.32 1384.24 L1247.32 1238.11 L1210.66 1238.11 L1210.66 1238.11  Z
  " fill="#009af9" fill-rule="evenodd" fill-opacity="1"/>
<polyline clip-path="url(#clip302)" style="stroke:#000000; stroke-width:4; stroke-opacity:1; fill:none" points="
  1210.66,1238.11 1210.66,1384.24 1247.32,1384.24 1247.32,1238.11 1210.66,1238.11 
  "/>
<path clip-path="url(#clip302)" d="
M1247.32 1266.65 L1247.32 1384.24 L1283.99 1384.24 L1283.99 1266.65 L1247.32 1266.65 L1247.32 1266.65  Z
  " fill="#009af9" fill-rule="evenodd" fill-opacity="1"/>
<polyline clip-path="url(#clip302)" style="stroke:#000000; stroke-width:4; stroke-opacity:1; fill:none" points="
  1247.32,1266.65 1247.32,1384.24 1283.99,1384.24 1283.99,1266.65 1247.32,1266.65 
  "/>
<path clip-path="url(#clip302)" d="
M1283.99 1279.21 L1283.99 1384.24 L1320.65 1384.24 L1320.65 1279.21 L1283.99 1279.21 L1283.99 1279.21  Z
  " fill="#009af9" fill-rule="evenodd" fill-opacity="1"/>
<polyline clip-path="url(#clip302)" style="stroke:#000000; stroke-width:4; stroke-opacity:1; fill:none" points="
  1283.99,1279.21 1283.99,1384.24 1320.65,1384.24 1320.65,1279.21 1283.99,1279.21 
  "/>
<path clip-path="url(#clip302)" d="
M1320.65 1292.91 L1320.65 1384.24 L1357.31 1384.24 L1357.31 1292.91 L1320.65 1292.91 L1320.65 1292.91  Z
  " fill="#009af9" fill-rule="evenodd" fill-opacity="1"/>
<polyline clip-path="url(#clip302)" style="stroke:#000000; stroke-width:4; stroke-opacity:1; fill:none" points="
  1320.65,1292.91 1320.65,1384.24 1357.31,1384.24 1357.31,1292.91 1320.65,1292.91 
  "/>
<path clip-path="url(#clip302)" d="
M1357.31 1315.74 L1357.31 1384.24 L1393.97 1384.24 L1393.97 1315.74 L1357.31 1315.74 L1357.31 1315.74  Z
  " fill="#009af9" fill-rule="evenodd" fill-opacity="1"/>
<polyline clip-path="url(#clip302)" style="stroke:#000000; stroke-width:4; stroke-opacity:1; fill:none" points="
  1357.31,1315.74 1357.31,1384.24 1393.97,1384.24 1393.97,1315.74 1357.31,1315.74 
  "/>
<path clip-path="url(#clip302)" d="
M1393.97 1321.45 L1393.97 1384.24 L1430.64 1384.24 L1430.64 1321.45 L1393.97 1321.45 L1393.97 1321.45  Z
  " fill="#009af9" fill-rule="evenodd" fill-opacity="1"/>
<polyline clip-path="url(#clip302)" style="stroke:#000000; stroke-width:4; stroke-opacity:1; fill:none" points="
  1393.97,1321.45 1393.97,1384.24 1430.64,1384.24 1430.64,1321.45 1393.97,1321.45 
  "/>
<path clip-path="url(#clip302)" d="
M1430.64 1346.56 L1430.64 1384.24 L1467.3 1384.24 L1467.3 1346.56 L1430.64 1346.56 L1430.64 1346.56  Z
  " fill="#009af9" fill-rule="evenodd" fill-opacity="1"/>
<polyline clip-path="url(#clip302)" style="stroke:#000000; stroke-width:4; stroke-opacity:1; fill:none" points="
  1430.64,1346.56 1430.64,1384.24 1467.3,1384.24 1467.3,1346.56 1430.64,1346.56 
  "/>
<path clip-path="url(#clip302)" d="
M1467.3 1357.98 L1467.3 1384.24 L1503.96 1384.24 L1503.96 1357.98 L1467.3 1357.98 L1467.3 1357.98  Z
  " fill="#009af9" fill-rule="evenodd" fill-opacity="1"/>
<polyline clip-path="url(#clip302)" style="stroke:#000000; stroke-width:4; stroke-opacity:1; fill:none" points="
  1467.3,1357.98 1467.3,1384.24 1503.96,1384.24 1503.96,1357.98 1467.3,1357.98 
  "/>
<path clip-path="url(#clip302)" d="
M1503.96 1359.12 L1503.96 1384.24 L1540.62 1384.24 L1540.62 1359.12 L1503.96 1359.12 L1503.96 1359.12  Z
  " fill="#009af9" fill-rule="evenodd" fill-opacity="1"/>
<polyline clip-path="url(#clip302)" style="stroke:#000000; stroke-width:4; stroke-opacity:1; fill:none" points="
  1503.96,1359.12 1503.96,1384.24 1540.62,1384.24 1540.62,1359.12 1503.96,1359.12 
  "/>
<path clip-path="url(#clip302)" d="
M1540.62 1363.69 L1540.62 1384.24 L1577.28 1384.24 L1577.28 1363.69 L1540.62 1363.69 L1540.62 1363.69  Z
  " fill="#009af9" fill-rule="evenodd" fill-opacity="1"/>
<polyline clip-path="url(#clip302)" style="stroke:#000000; stroke-width:4; stroke-opacity:1; fill:none" points="
  1540.62,1363.69 1540.62,1384.24 1577.28,1384.24 1577.28,1363.69 1540.62,1363.69 
  "/>
<path clip-path="url(#clip302)" d="
M1577.28 1370.54 L1577.28 1384.24 L1613.95 1384.24 L1613.95 1370.54 L1577.28 1370.54 L1577.28 1370.54  Z
  " fill="#009af9" fill-rule="evenodd" fill-opacity="1"/>
<polyline clip-path="url(#clip302)" style="stroke:#000000; stroke-width:4; stroke-opacity:1; fill:none" points="
  1577.28,1370.54 1577.28,1384.24 1613.95,1384.24 1613.95,1370.54 1577.28,1370.54 
  "/>
<path clip-path="url(#clip302)" d="
M1613.95 1371.68 L1613.95 1384.24 L1650.61 1384.24 L1650.61 1371.68 L1613.95 1371.68 L1613.95 1371.68  Z
  " fill="#009af9" fill-rule="evenodd" fill-opacity="1"/>
<polyline clip-path="url(#clip302)" style="stroke:#000000; stroke-width:4; stroke-opacity:1; fill:none" points="
  1613.95,1371.68 1613.95,1384.24 1650.61,1384.24 1650.61,1371.68 1613.95,1371.68 
  "/>
<path clip-path="url(#clip302)" d="
M1650.61 1376.25 L1650.61 1384.24 L1687.27 1384.24 L1687.27 1376.25 L1650.61 1376.25 L1650.61 1376.25  Z
  " fill="#009af9" fill-rule="evenodd" fill-opacity="1"/>
<polyline clip-path="url(#clip302)" style="stroke:#000000; stroke-width:4; stroke-opacity:1; fill:none" points="
  1650.61,1376.25 1650.61,1384.24 1687.27,1384.24 1687.27,1376.25 1650.61,1376.25 
  "/>
<path clip-path="url(#clip302)" d="
M1687.27 1377.39 L1687.27 1384.24 L1723.93 1384.24 L1723.93 1377.39 L1687.27 1377.39 L1687.27 1377.39  Z
  " fill="#009af9" fill-rule="evenodd" fill-opacity="1"/>
<polyline clip-path="url(#clip302)" style="stroke:#000000; stroke-width:4; stroke-opacity:1; fill:none" points="
  1687.27,1377.39 1687.27,1384.24 1723.93,1384.24 1723.93,1377.39 1687.27,1377.39 
  "/>
<path clip-path="url(#clip302)" d="
M1723.93 1372.82 L1723.93 1384.24 L1760.6 1384.24 L1760.6 1372.82 L1723.93 1372.82 L1723.93 1372.82  Z
  " fill="#009af9" fill-rule="evenodd" fill-opacity="1"/>
<polyline clip-path="url(#clip302)" style="stroke:#000000; stroke-width:4; stroke-opacity:1; fill:none" points="
  1723.93,1372.82 1723.93,1384.24 1760.6,1384.24 1760.6,1372.82 1723.93,1372.82 
  "/>
<path clip-path="url(#clip302)" d="
M1760.6 1380.81 L1760.6 1384.24 L1797.26 1384.24 L1797.26 1380.81 L1760.6 1380.81 L1760.6 1380.81  Z
  " fill="#009af9" fill-rule="evenodd" fill-opacity="1"/>
<polyline clip-path="url(#clip302)" style="stroke:#000000; stroke-width:4; stroke-opacity:1; fill:none" points="
  1760.6,1380.81 1760.6,1384.24 1797.26,1384.24 1797.26,1380.81 1760.6,1380.81 
  "/>
<path clip-path="url(#clip302)" d="
M1797.26 1378.53 L1797.26 1384.24 L1833.92 1384.24 L1833.92 1378.53 L1797.26 1378.53 L1797.26 1378.53  Z
  " fill="#009af9" fill-rule="evenodd" fill-opacity="1"/>
<polyline clip-path="url(#clip302)" style="stroke:#000000; stroke-width:4; stroke-opacity:1; fill:none" points="
  1797.26,1378.53 1797.26,1384.24 1833.92,1384.24 1833.92,1378.53 1797.26,1378.53 
  "/>
<path clip-path="url(#clip302)" d="
M1833.92 1383.1 L1833.92 1384.24 L1870.58 1384.24 L1870.58 1383.1 L1833.92 1383.1 L1833.92 1383.1  Z
  " fill="#009af9" fill-rule="evenodd" fill-opacity="1"/>
<polyline clip-path="url(#clip302)" style="stroke:#000000; stroke-width:4; stroke-opacity:1; fill:none" points="
  1833.92,1383.1 1833.92,1384.24 1870.58,1384.24 1870.58,1383.1 1833.92,1383.1 
  "/>
<path clip-path="url(#clip302)" d="
M1870.58 1381.95 L1870.58 1384.24 L1907.24 1384.24 L1907.24 1381.95 L1870.58 1381.95 L1870.58 1381.95  Z
  " fill="#009af9" fill-rule="evenodd" fill-opacity="1"/>
<polyline clip-path="url(#clip302)" style="stroke:#000000; stroke-width:4; stroke-opacity:1; fill:none" points="
  1870.58,1381.95 1870.58,1384.24 1907.24,1384.24 1907.24,1381.95 1870.58,1381.95 
  "/>
<path clip-path="url(#clip302)" d="
M1907.24 1384.24 L1907.24 1384.24 L1943.91 1384.24 L1943.91 1384.24 L1907.24 1384.24 L1907.24 1384.24  Z
  " fill="#009af9" fill-rule="evenodd" fill-opacity="1"/>
<polyline clip-path="url(#clip302)" style="stroke:#000000; stroke-width:4; stroke-opacity:1; fill:none" points="
  1907.24,1384.24 1907.24,1384.24 1943.91,1384.24 1907.24,1384.24 
  "/>
<path clip-path="url(#clip302)" d="
M1943.91 1381.95 L1943.91 1384.24 L1980.57 1384.24 L1980.57 1381.95 L1943.91 1381.95 L1943.91 1381.95  Z
  " fill="#009af9" fill-rule="evenodd" fill-opacity="1"/>
<polyline clip-path="url(#clip302)" style="stroke:#000000; stroke-width:4; stroke-opacity:1; fill:none" points="
  1943.91,1381.95 1943.91,1384.24 1980.57,1384.24 1980.57,1381.95 1943.91,1381.95 
  "/>
<path clip-path="url(#clip302)" d="
M1980.57 1383.1 L1980.57 1384.24 L2017.23 1384.24 L2017.23 1383.1 L1980.57 1383.1 L1980.57 1383.1  Z
  " fill="#009af9" fill-rule="evenodd" fill-opacity="1"/>
<polyline clip-path="url(#clip302)" style="stroke:#000000; stroke-width:4; stroke-opacity:1; fill:none" points="
  1980.57,1383.1 1980.57,1384.24 2017.23,1384.24 2017.23,1383.1 1980.57,1383.1 
  "/>
<path clip-path="url(#clip302)" d="
M2017.23 1384.24 L2017.23 1384.24 L2053.89 1384.24 L2053.89 1384.24 L2017.23 1384.24 L2017.23 1384.24  Z
  " fill="#009af9" fill-rule="evenodd" fill-opacity="1"/>
<polyline clip-path="url(#clip302)" style="stroke:#000000; stroke-width:4; stroke-opacity:1; fill:none" points="
  2017.23,1384.24 2017.23,1384.24 2053.89,1384.24 2017.23,1384.24 
  "/>
<path clip-path="url(#clip302)" d="
M2053.89 1384.24 L2053.89 1384.24 L2090.56 1384.24 L2090.56 1384.24 L2053.89 1384.24 L2053.89 1384.24  Z
  " fill="#009af9" fill-rule="evenodd" fill-opacity="1"/>
<polyline clip-path="url(#clip302)" style="stroke:#000000; stroke-width:4; stroke-opacity:1; fill:none" points="
  2053.89,1384.24 2053.89,1384.24 2090.56,1384.24 2053.89,1384.24 
  "/>
<path clip-path="url(#clip302)" d="
M2090.56 1384.24 L2090.56 1384.24 L2127.22 1384.24 L2127.22 1384.24 L2090.56 1384.24 L2090.56 1384.24  Z
  " fill="#009af9" fill-rule="evenodd" fill-opacity="1"/>
<polyline clip-path="url(#clip302)" style="stroke:#000000; stroke-width:4; stroke-opacity:1; fill:none" points="
  2090.56,1384.24 2090.56,1384.24 2127.22,1384.24 2090.56,1384.24 
  "/>
<path clip-path="url(#clip302)" d="
M2127.22 1384.24 L2127.22 1384.24 L2163.88 1384.24 L2163.88 1384.24 L2127.22 1384.24 L2127.22 1384.24  Z
  " fill="#009af9" fill-rule="evenodd" fill-opacity="1"/>
<polyline clip-path="url(#clip302)" style="stroke:#000000; stroke-width:4; stroke-opacity:1; fill:none" points="
  2127.22,1384.24 2127.22,1384.24 2163.88,1384.24 2127.22,1384.24 
  "/>
<path clip-path="url(#clip302)" d="
M2163.88 1384.24 L2163.88 1384.24 L2200.54 1384.24 L2200.54 1384.24 L2163.88 1384.24 L2163.88 1384.24  Z
  " fill="#009af9" fill-rule="evenodd" fill-opacity="1"/>
<polyline clip-path="url(#clip302)" style="stroke:#000000; stroke-width:4; stroke-opacity:1; fill:none" points="
  2163.88,1384.24 2163.88,1384.24 2200.54,1384.24 2163.88,1384.24 
  "/>
<path clip-path="url(#clip302)" d="
M2200.54 1383.1 L2200.54 1384.24 L2237.2 1384.24 L2237.2 1383.1 L2200.54 1383.1 L2200.54 1383.1  Z
  " fill="#009af9" fill-rule="evenodd" fill-opacity="1"/>
<polyline clip-path="url(#clip302)" style="stroke:#000000; stroke-width:4; stroke-opacity:1; fill:none" points="
  2200.54,1383.1 2200.54,1384.24 2237.2,1384.24 2237.2,1383.1 2200.54,1383.1 
  "/>
<path clip-path="url(#clip300)" d="
M1998.28 214.069 L2282.73 214.069 L2282.73 93.1086 L1998.28 93.1086  Z
  " fill="#ffffff" fill-rule="evenodd" fill-opacity="1"/>
<polyline clip-path="url(#clip300)" style="stroke:#000000; stroke-width:4; stroke-opacity:1; fill:none" points="
  1998.28,214.069 2282.73,214.069 2282.73,93.1086 1998.28,93.1086 1998.28,214.069 
  "/>
<path clip-path="url(#clip300)" d="
M2021.62 177.781 L2161.68 177.781 L2161.68 129.397 L2021.62 129.397 L2021.62 177.781  Z
  " fill="#009af9" fill-rule="evenodd" fill-opacity="1"/>
<polyline clip-path="url(#clip300)" style="stroke:#000000; stroke-width:4; stroke-opacity:1; fill:none" points="
  2021.62,177.781 2161.68,177.781 2161.68,129.397 2021.62,129.397 2021.62,177.781 
  "/>
<path clip-path="url(#clip300)" d="M 0 0 M2198.86 173.276 Q2197.06 177.906 2195.35 179.318 Q2193.63 180.73 2190.76 180.73 L2187.36 180.73 L2187.36 177.165 L2189.86 177.165 Q2191.62 177.165 2192.59 176.332 Q2193.56 175.498 2194.74 172.396 L2195.51 170.452 L2185.02 144.943 L2189.54 144.943 L2197.64 165.221 L2205.74 144.943 L2210.25 144.943 L2198.86 173.276 Z" fill="#000000" fill-rule="evenodd" fill-opacity="1" /><path clip-path="url(#clip300)" d="M 0 0 M2216.13 166.933 L2223.77 166.933 L2223.77 140.568 L2215.46 142.235 L2215.46 137.975 L2223.73 136.309 L2228.4 136.309 L2228.4 166.933 L2236.04 166.933 L2236.04 170.869 L2216.13 170.869 L2216.13 166.933 Z" fill="#000000" fill-rule="evenodd" fill-opacity="1" /></svg>
